vector_dim	window_width	neg_sample	min_batch_size	samp_coef	sub_samp	HitatK 	 NDGCatK
	35			5				5			50			0.5			0.0001			0.111900		0.074909
	35			5				5			50			0.5			1e-05			0.117500		0.077598
	35			5				5			50			0.5			1e-06			0.112000		0.075104
	35			5				5			50			0.5			1e-07			0.112700		0.074977
